{
  "template": {
    "aliases": {
      "${index}": {}
    },
    "settings": {
      "number_of_shards": 1,
      "number_of_replicas": "${number_of_replicas}",
      "index.lifecycle.name": "${data_policy}",
      "index.lifecycle.rollover_alias": "${index}"
    },
    "mappings": {
      "dynamic_templates": [
        {
          "strings_as_keywords": {
            "match": "*",
            "match_mapping_type": "string",
            "mapping": {
              "type": "keyword"
            }
          }
        },
        {
          "attributes_not_enabled": {
            "match": "data",
            "mapping": {
              "dynamic": false
            }
          }
        }
      ],
      "properties": {
        "data": {
          "type": "object",
          "enabled": false
        },
        "timestamp": {
          "type": "date",
          "format": "epoch_millis"
        },
        "last_modified_date": {
          "type": "date",
          "format": "epoch_millis"
        }
      }
    }
  }
}