{
  "template": {
    "aliases": {
      "${index}": {}
    },
    "settings": {
      "number_of_shards": 1,
      "number_of_replicas": "${number_of_replicas}",
      "index.lifecycle.name": "${data_policy}",
      "index.lifecycle.rollover_alias": "${index}"
    },
    "mappings": {
      "dynamic_templates": [
        {
          "strings_as_keywords": {
            "match": "*",
            "match_mapping_type": "string",
            "mapping": {
              "type": "keyword"
            }
          }
        }
      ],
      "properties": {
        "timestamp": {
          "type": "date",
          "format": "epoch_millis"
        }
      }
    }
  }
}